Milestone Report
…
twitter_sdf <- data_frame(line = subset1, text = us_twitter[subset1], dataType = "twitter") #sample twitter df
news_sdf <- data_frame(line = subset2, text = us_news[subset2], dataType = "news") #sample news df
blogs_sdf <- data_frame(line = subset3, text = us_blogs[subset3], dataType = "blogs") #sample blogs df

sdf <- rbind(twitter_sdf, news_sdf, blogs_sdf)

Tokenization (Creating a Unigram)

First, we tokenize each row/line by breaking the text into individual token (in this case, 1 word). The tidytext library is used to transform the original data to a tidy text dataframe. Punctuations are removed, and all tokens are converted to lower case for easy comparison or combinations between datasets.

tidy_df1 <- sdf %>% unnest_tokens(word, text)
print(tidy_df1)

## # A tibble: 8,896,713 x 3
##       line dataType        word
##      <int>    <chr>       <chr>
##  1 2135983  twitter      hahaha
##  2 2135983  twitter        that
##  3 2135983  twitter       could
##  4 2135983  twitter        have
##  5 2135983  twitter        been
##  6 2135983  twitter potentially
##  7 2135983  twitter     awkward
##  8 2135983  twitter          to
##  9 2135983  twitter     whoever
## 10 2135983  twitter          is
## # ... with 8,896,703 more rows

Counting the Frequency of each Unique Word

Next, we create a unigram, where each tokens frequency will be calculated and tabulated. Currently, we treat the 3 datasets as independent, and calculate frequency of token separately for each dataset (twitter/blogs/news). Stop words (such as the,of, to) are removed as they are not useful for the text analysis we are doing. List of stop words we will be exluding will be extracted from stop_words in the tidytext dataset.

count_df <- tidy_df1 %>% anti_join(stop_words) %>% group_by(dataType) %>% count(word, sort = T)

## Joining, by = "word"

print(count_df)

## Source: local data frame [255,868 x 3]
## Groups: dataType [3]
## 
## # A tibble: 255,868 x 3
##    dataType   word     n
##       <chr>  <chr> <int>
##  1    blogs   time 10036
##  2    blogs people  6705
##  3    blogs    day  5871
##  4     news   time  5743
##  5    blogs   love  4920
##  6    blogs   life  4649
##  7     news people  4617
##  8  twitter   love  4438
##  9    blogs   its  4182
## 10  twitter    day  3911
## # ... with 255,858 more rows
…
Interesting Finding 1

We observed that only Twitter has words like rt and lol. We know that lol is usually used informally, and hence we would expect no occurence of such word in the News and Blogs datasets. We now need to investigate what is the meaning of rt.

tidy_df1 %>% filter(word == "rt")

## # A tibble: 3,778 x 3
##       line dataType  word
##      <int>    <chr> <chr>
##  1   84419  twitter    rt
##  2   66080  twitter    rt
##  3  940724  twitter    rt
##  4  997669  twitter    rt
##  5 1739729  twitter    rt
##  6  995539  twitter    rt
##  7 1795973  twitter    rt
##  8  438468  twitter    rt
##  9  769280  twitter    rt
## 10 2163203  twitter    rt
## # ... with 3,768 more rows
…
So, we subset a few lines of tweets with rt in it and we observed they are mostly capitalized. (I personally did not use Twitter, FB is enough to steal all my productivity away!) After some googling, I found out that RT means Retweet or Real Time. So, it makes sense, that rt appears frequently in the Twitter dataset.

Creating Bigrams

Words in a sentence tend to have dependencies between each other. A n-grams consider n consecutive words as 1 token and tabulate the frequency of each unique token. A bigram, where n = 2, will consider the frequency of 2 consecutive words in the text dataset.

bigram_df <- sdf %>% unnest_tokens(bigram ,text, token = "ngrams", n = 2)
print(bigram_df)

## # A tibble: 8,596,713 x 3
##     line dataType           bigram
##    <int>    <chr>            <chr>
##  1     1    blogs           in the
##  2     1    blogs        the years
##  3     1    blogs years thereafter
##  4     1    blogs  thereafter most
##  5     1    blogs          most of
##  6     1    blogs           of the
##  7     1    blogs          the oil
##  8     1    blogs       oil fields
##  9     1    blogs       fields and
## 10     1    blogs    and platforms
## # ... with 8,596,703 more rows

Counting the Frequency of each Unique Bigram

count_bigram_df <- bigram_df %>% count(bigram, sort = T)
print(count_bigram_df)

## # A tibble: 2,465,003 x 2
##      bigram     n
##       <chr> <int>
##  1   of the 41779
##  2   in the 37549
##  3   to the 19419
##  4   on the 17789
##  5  for the 16508
##  6    to be 14329
##  7   at the 12614
##  8  and the 12512
##  9     in a 10986
## 10 with the  9981
## # ... with 2,464,993 more rows
…
We start by separating the bigram into word1 and word2. After removing the stop words, we filter out only the top few most frequent bigram and visualize it using a function provided by Julia Silge and David Robinson and the R package ggraph.

sep_df <- bigram_df %>% separate(bigram, c("word1", "word2"), sep = " ")
bigram_filtered <- sep_df %>%
    filter(!word1 %in% stop_words$word) %>%
    filter(!word2 %in% stop_words$word)
bigram_count <- bigram_filtered %>% count(word1, word2, sort = T)
bigram_graph <- bigram_count %>% filter(n > 200) 

print(bigram_graph)

## Source: local data frame [41 x 3]
## Groups: word1 [33]
## 
## # A tibble: 41 x 3
##     word1     word2     n
##     <chr>     <chr> <int>
##  1     st     louis  1048
##  2      1         2   799
##  3    los   angeles   645
##  4    san francisco   562
##  5     30       p.m   482
##  6 health      care   471
##  7  happy  birthday   414
##  8    san     diego   392
##  9 social     media   386
## 10    ice     cream   355
## # ... with 31 more rows
…
